collectionName,year,nbByProducedDate,nbBySubmittedDate,nbByReleasedDate,nbByPublicationDate
XLIM,2003,182,1,1,181.0
XLIM,2004,242,4,4,241.0
XLIM,2005,575,278,278,576.0
XLIM,2006,893,759,759,895.0
XLIM,2007,920,842,840,921.0
XLIM,2008,1025,711,710,1022.0
XLIM,2009,1125,688,689,1122.0
XLIM,2010,1146,877,877,1147.0
XLIM,2011,1168,1325,1326,1169.0
XLIM,2012,1177,1465,1466,1177.0
XLIM,2013,1100,1344,1341,1100.0
XLIM,2014,1095,1134,1132,1093.0
XLIM,2015,1076,1530,1530,1080.0
XLIM,2016,977,1414,1414,976.0
XLIM,2017,949,798,795,948.0
XLIM,2018,898,1334,1333,902.0
XLIM,2019,470,1137,1143,470.0
XLIM,2020,34,245,248,35.0
PPRIME,2003,3,0,0,3.0
PPRIME,2004,4,0,0,4.0
PPRIME,2005,6,0,0,6.0
PPRIME,2006,4,0,0,4.0
PPRIME,2007,2,0,0,2.0
PPRIME,2008,5,0,0,5.0
PPRIME,2009,120,26,25,118.0
PPRIME,2010,243,121,121,242.0
PPRIME,2011,262,160,161,263.0
PPRIME,2012,304,159,160,301.0
PPRIME,2013,292,193,192,293.0
PPRIME,2014,271,223,221,275.0
PPRIME,2015,315,247,247,314.0
PPRIME,2016,361,300,300,359.0
PPRIME,2017,580,364,360,580.0
PPRIME,2018,794,971,957,793.0
PPRIME,2019,570,1181,1184,571.0
PPRIME,2020,171,397,410,173.0
FORELL,2003,41,0,0,40.0
FORELL,2004,50,0,0,48.0
FORELL,2005,51,3,3,53.0
FORELL,2006,63,4,4,64.0
FORELL,2007,75,3,3,72.0
FORELL,2008,83,2,2,81.0
FORELL,2009,107,2,2,108.0
FORELL,2010,124,12,10,125.0
FORELL,2011,188,14,14,184.0
FORELL,2012,276,7,9,266.0
FORELL,2013,266,9,9,264.0
FORELL,2014,332,22,22,335.0
FORELL,2015,434,58,58,433.0
FORELL,2016,452,173,173,453.0
FORELL,2017,459,249,249,464.0
FORELL,2018,469,383,379,473.0
FORELL,2019,422,1785,1785,428.0
FORELL,2020,191,1520,1524,196.0
CERCA,2003,23,0,0,23.0
CERCA,2004,46,0,0,46.0
CERCA,2005,69,58,58,69.0
CERCA,2006,78,83,83,78.0
CERCA,2007,68,47,47,68.0
CERCA,2008,90,44,44,90.0
CERCA,2009,117,61,62,117.0
CERCA,2010,118,53,54,118.0
CERCA,2011,117,30,29,117.0
CERCA,2012,106,29,28,106.0
CERCA,2013,104,26,26,104.0
CERCA,2014,131,21,21,130.0
CERCA,2015,140,45,45,140.0
CERCA,2016,132,85,84,132.0
CERCA,2017,144,159,159,144.0
CERCA,2018,135,425,426,136.0
CERCA,2019,94,460,460,94.0
CERCA,2020,35,146,146,35.0
IC2MP,2003,11,0,0,11.0
IC2MP,2004,15,0,0,15.0
IC2MP,2005,14,0,0,14.0
IC2MP,2006,12,0,0,12.0
IC2MP,2007,17,0,0,17.0
IC2MP,2008,25,0,0,25.0
IC2MP,2009,38,0,0,38.0
IC2MP,2010,83,1,1,82.0
IC2MP,2011,226,98,98,226.0
IC2MP,2012,388,270,271,389.0
IC2MP,2013,403,317,316,403.0
IC2MP,2014,372,247,245,372.0
IC2MP,2015,381,345,343,380.0
IC2MP,2016,366,395,396,366.0
IC2MP,2017,338,372,373,339.0
IC2MP,2018,313,574,573,313.0
IC2MP,2019,232,564,565,232.0
IC2MP,2020,87,209,209,87.0
